<?xml version="1.0" encoding="utf-8"?>
<!-- Generator: Adobe Illustrator 19.0.0, SVG Export Plug-In . SVG Version: 6.00 Build 0)  -->
<svg version="1.1" id="Layer_1" xmlns="http://www.w3.org/2000/svg" xmlns:xlink="http://www.w3.org/1999/xlink" x="0px" y="0px"
	 viewBox="-92 74.9 411 693" style="enable-background:new -92 74.9 411 693;" xml:space="preserve">
<style type="text/css">
	.st0{fill:#0069B7;}
</style>
<g>
	<g>
		<polygon points="10,149.8 10,280.8 -184,280.8 -184,842.8 227,149.8 		"/>
	</g>
</g>
<g>
	<polygon class="st0" points="2468,842.8 3683,842.8 3683,-237.2 3041,-237.2 	"/>
</g>
</svg>
